com\bless\plugin\adapter\outbound\processor\routing\AllowOutboundRoutingHeaderDecider.class
com\bless\plugin\adapter\outbound\CacheConfiguration.class
com\bless\plugin\adapter\outbound\processor\routing\RestTokenProducerRoute$1.class
com\bless\plugin\adapter\outbound\processor\routing\RestTokenProducerRoute.class
com\bless\plugin\adapter\outbound\Application$1.class
com\bless\plugin\adapter\outbound\model\UserRequest.class
com\bless\plugin\adapter\outbound\payload\serializer\CaptureMasterAWBPayloadSerializer.class
com\bless\plugin\adapter\outbound\Application.class
com\bless\plugin\adapter\outbound\payload\serializer\CaptureHouseAWBPayloadSerializer.class
com\bless\plugin\adapter\outbound\SSLCertConfiguration.class
